…
#> [[382]]$biotype
#> [1] "protein_coding"
#> 
#> [[382]]$seq_region_name
#> [1] "6"
#> 
#> [[382]]$source
#> [1] "ensembl_havana"
#> MHC genes detected: 382
#> MHC genes with unique HGNC ID detected: 374
get_gene_coordinates(mhc_genes %>% pull(external_name))
#> 
#> 
#> Dowloading MAGMA hg19 reference file ...
#> # A tibble: 19,261 × 5
#>    chr    start    end entrez    hgnc        
#>    <chr>  <int>  <int> <chr>     <chr>       
#>  1 chr1   69091  70008 79501     OR4F5       
#>  2 chr1  142447 174392 100996442 LOC100996442
#>  3 chr1  367659 368597 729759    OR4F29      
#>  4 chr1  621096 622034 81399     OR4F16      
#>  5 chr1  859993 879961 148398    SAMD11      
#>  6 chr1  879583 894679 26155     NOC2L       
#>  7 chr1  895967 901099 339451    KLHL17      
#>  8 chr1  901872 910488 84069     PLEKHN1     
#>  9 chr1  910579 917473 84808     PERM1       
#> 10 chr1  934342 936608 57801     HES4        
#> # ℹ 19,251 more rows
```
…
