Get vector of hg38 genes overlapping MHC region — get_mhc_genes • tdespec
…
#> [1] "ENSG00000168477"
#> 
#> [[425]]$id
#> [1] "ENSG00000168477"
#> 
#> [[425]]$feature_type
#> [1] "gene"
#> 
#> [[425]]$source
#> [1] "ensembl_havana"
#> 
#> 
#> MHC genes detected: 425
#> MHC genes with unique HGNC ID detected: 344
#> # A tibble: 425 × 15
#>    external_name seq_region_name start   end   assembly_name biotype description
#>    <chr>         <chr>           <chr>   <chr> <chr>         <chr>   <chr>      
#>  1 LINC00533     6               286482… 2864… GRCh38        lncRNA  long inter…
#>  2 OR2AD1P       6               290266… 2902… GRCh38        unproc… olfactory …
#>  3 RPSAP2        6               287320… 2873… GRCh38        proces… ribosomal …
#>  4 RPL13P        6               288614… 2886… GRCh38        proces… ribosomal …
#>  5 KRT18P1       6               289691… 2897… GRCh38        proces… keratin 18…
#>  6 NOP56P1       6               287836… 2878… GRCh38        proces… NOP56 ribo…
#>  7 OR2U2P        6               292684… 2926… GRCh38        unproc… olfactory …
#>  8 LINC01623     6               288596… 2886… GRCh38        lncRNA  long inter…
#>  9 OR2J4P        6               291815… 2918… GRCh38        unproc… olfactory …
#> 10 NA            6               291242… 2912… GRCh38        lncRNA  novel tran…
#> # ℹ 415 more rows
#> # ℹ 8 more variables: feature_type <chr>, source <chr>, strand <chr>,
#> #   logic_name <chr>, gene_id <chr>, id <chr>, canonical_transcript <chr>,
#> #   version <chr>
…
